{
    "$schema": "http://json-schema.org/schema",
    "id": "AntoraSchematics-Asciidoctor-Extension",
    "title": "Asciidoctor Extension Schematic",
    "type": "object",
    "properties": {
        "path": {
            "type": "string",
            "format": "path",
            "description": "The path to create the extension at.",
            "visible": false,
            "x-prompt": "'path': Extension Path (default .): "
        },
        "extensionName": {
            "description": "The name of the extension.",
            "type": "string",
            "default": "extension",
            "x-prompt": "'extensionName': Extension Name (default extension, resulting in 'asciidoctor-extension'): "
        },
        "namespace": {
            "description": "The namespace for the extension package.",
            "type": "string",
            "default": "@me",
            "x-prompt": "'namespace': Extension package namespace (default @me): "
        },
        "gitPath": {
            "type": "string",
            "format": "path",
            "description": "The path to initialize the git repository at (use '-' for .: default path)."
        },
        "userName": {
            "description": "The git user name. Once specified, it is stored in the local .git/config and does not need to be specified again.",
            "type": "string"
        },
        "userEmail": {
            "description": "The git user email. Once specified, it is stored in the local .git/config and does not need to be specified again.",
            "type": "string"
        },
        "commit": {
            "description": "Specify --commit to commit the added files.",
            "type": "boolean",
            "default": false
        },
        "noGit": {
            "description": "Specify --noGit to avoid any git operations",
            "type": "boolean",
            "default": false
        },
        "noInstall": {
            "description": "Specify --noInstall to avoid having npm install the project dependencies",
            "type": "boolean",
            "default": false
        }
    }
}
