{
  "$schema": "../node_modules/@angular-devkit/schematics/collection-schema.json",
  "schematics": {
    "component": {
      "description": "Antora Component schematic.\n\tCreates a basic component with antora.yml component descriptor,\n\ta nav file, and an index.adoc file, and checks into git.",
      "factory": "./component/index#component",
      "schema": "./component/schema.json"
    },
    "playbook": {
      "description": "Antora Playbook schematic.\n\tCreates a playbook with specified source urls and paths,\n\treferencing a local or the default UI, checks into git, and installs Antora globally.",
      "factory": "./playbook/index#playbook",
      "schema": "./playbook/schema.json"
    },
    "ui": {
      "description": "Antora UI schematic.\n\tClones the Antora default UI and creates a branch to modify,\n\tthen installs gulp-cli globally and the Antora default UI dependencies.",
      "factory": "./ui/index#ui",
      "schema": "./ui/schema.json"
    },
    "uiExtension": {
      "description": "Antora UI Extension schematic.\n\tSets up a UI extension project with necessary dependencies, scripts, and README.adoc",
      "factory": "./ui-extension/index#uiExtension",
      "schema": "./ui-extension/schema.json"
    },
    "quickstart": {
      "description": "Antora quickstart schematic.\n\tCreates three git repos containing a playbook,\n\ta component, and the cloned Antora default UI.\n\tThese are created in the current directory.",
      "factory": "./quickstart/index#quickstart",
      "schema": "./quickstart/schema.json"
    },
    "example": {
      "description": "Antora example schematic.\n\tCreates a directory containing a playbook using the Antora default UI,\n\tand component or source trees, all in one git repo.",
      "factory": "./example/index#example",
      "schema": "./example/schema.json"
    },
    "extension": {
      "description": "Antora extension schematic.\n\tCreates a Node.js project containing an Antora pipeline extension responding to all events.",
      "factory": "./extension/index#extension",
      "schema": "./extension/schema.json"
    },
    "asciidoctorExtension": {
      "description": "Asciidoctor extension schematic.\n\tCreates a Node.js project containing an Asciidoctor extension.",
      "factory": "./asciidoctor-extension/index#asciidoctorExtension",
      "schema": "./asciidoctor-extension/schema.json"
    }
  }
}
