{
  "$schema": "http://json-schema.org/schema",
  "id": "AntoraSchematics-UI",
  "title": "Antora UI Schematic",
  "type": "object",
  "properties": {
    "path": {
      "type": "string",
      "format": "path",
      "description": "The path to clone the Antora Default UI project at.",
      "x-prompt": "'path': UI project Path (default .): "
    },
    "branch": {
      "type": "string",
      "description": "The branch to create for local modifications of the Antora default UI.\n\tOmit to avoid branching."
    },
    "noInstall": {
      "description": "Specify --noInstall to avoid having npm install the project dependencies",
      "type": "boolean",
      "default": false
    }
  }
}
