{
  "$schema": "http://json-schema.org/schema",
  "id": "AntoraSchematics-Example",
  "title": "Antora Example Schematic",
  "type": "object",
  "properties": {
    "path": {
      "type": "string",
      "format": "path",
      "description": "The path to create the example at. The playbook and and sources will be here. Default: 'example'",
      "default": "example",
      "visible": false,
      "x-prompt": "'path': Example Path (default example): "
    },
    "gitPath": {
      "type": "string",
      "format": "path",
      "description": "The path to initialize the git repository at (use '-' for .: default path)."
    },
    "sources": {
      "type": "string",
      "description": "Comma-separated list of source paths",
      "visible": false,
      "x-prompt": "'sources': Comma-separated list of source paths: "
    },
    "userName": {
      "description": "The git user name. Once specified, it is stored in the local .git/config and does not need to be specified again.",
      "type": "string"
    },
    "userEmail": {
      "description": "The git user email. Once specified, it is stored in the local .git/config and does not need to be specified again.",
      "type": "string"
    },
    "commit": {
      "description": "Specify --commit to commit the added files.",
      "type": "boolean",
      "default": false
    },
    "noGit": {
      "description": "Specify --noGit to avoid any git operations",
      "type": "boolean",
      "default": false
    },
    "noInstall": {
      "description": "Specify --noInstall to avoid having npm install the project dependencies",
      "type": "boolean",
      "default": false
    }
  }
}
