{
    "$schema": "http://json-schema.org/schema",
    "id": "AntoraSchematics-UI-Extension",
    "title": "Antora UI Extension Schematic",
    "type": "object",
    "properties": {
        "path": {
            "type": "string",
            "format": "path",
            "description": "The path to create the UI extension at.",
            "visible": false,
            "x-prompt": "'path': UI extension Path (default .): "
        },
        "extensionName": {
            "description": "The name of the UI extension.",
            "type": "string",
            "x-prompt": "'extensionName': UI extension Name: "
        },
        "namespace": {
            "description": "The namespace for the UI extension package (omit '@').",
            "type": "string",
            "default": "me",
            "x-prompt": "'namespace': UI extension package namespace (default me): "
        },
        "gitPath": {
            "type": "string",
            "format": "path",
            "description": "The path to initialize the git repository at (use '-' for .: default path)."
        },
        "userName": {
            "description": "The git user name. Once specified, it is stored in the local .git/config and does not need to be specified again.",
            "type": "string"
        },
        "userEmail": {
            "description": "The git user email. Once specified, it is stored in the local .git/config and does not need to be specified again.",
            "type": "string"
        },
        "commit": {
            "description": "Specify --commit to commit the added files.",
            "type": "boolean",
            "default": false
        },
        "noGit": {
            "description": "Specify --noGit to avoid any git operations",
            "type": "boolean",
            "default": false
        },
        "noInstall": {
            "description": "Specify --noInstall to avoid having npm install the project dependencies",
            "type": "boolean",
            "default": false
        }
    }
}
